IS415-GAA: JialeSo - Spatial Weights and Applications
…
  return(data)
})

# Combine all rows into a single data frame
gdp_df <- bind_rows(gdp_data)

# View the combined data in a cleaner format
gdp_df

# A tibble: 448 × 4
   Polygon Neighbor  GDPPC Neighbour_GDPPC
   <chr>   <chr>     <dbl>           <dbl>
 1 Anxiang Hanshou   20981           23667
 2 Anxiang Jinshi    34592           23667
 3 Anxiang Li        24473           23667
 4 Anxiang Nan       21311           23667
 5 Anxiang Taoyuan   22879           23667
 6 Hanshou Anxiang   23667           20981
 7 Hanshou Nan       21311           20981
 8 Hanshou Yuanjiang 26258           20981
 9 Hanshou Taojiang  19509           20981
10 Hanshou Taoyuan   22879           20981
# ℹ 438 more rows
…
  return(data)
})

# Combine all rows into a single data frame
gdp_df <- bind_rows(gdp_data)

# View the combined data in a cleaner format
gdp_df

# A tibble: 440 × 4
   Polygon Neighbor  GDPPC Neighbour_GDPPC
   <chr>   <chr>     <dbl>           <dbl>
 1 Anxiang Jinshi    34592           23667
 2 Anxiang Li        24473           23667
 3 Anxiang Nan       21311           23667
 4 Anxiang Taoyuan   22879           23667
 5 Hanshou Nan       21311           20981
 6 Hanshou Yuanjiang 26258           20981
 7 Hanshou Taojiang  19509           20981
 8 Hanshou Taoyuan   22879           20981
 9 Jinshi  Anxiang   23667           34592
10 Jinshi  Li        24473           34592
# ℹ 430 more rows
…
